%YAML 1.1
%TAG !u! tag:unity3d.com,2011:
--- !u!1 &8111724055490976501
GameObject:
  m_ObjectHideFlags: 0
  m_CorrespondingSourceObject: {fileID: 0}
  m_PrefabInstance: {fileID: 0}
  m_PrefabAsset: {fileID: 0}
  serializedVersion: 6
  m_Component:
  - component: {fileID: 7598529975149645022}
  - component: {fileID: 726365892635632171}
  m_Layer: 0
  m_Name: SceneLoader
  m_TagString: Untagged
  m_Icon: {fileID: 0}
  m_NavMeshLayer: 0
  m_StaticEditorFlags: 0
  m_IsActive: 1
--- !u!4 &7598529975149645022
Transform:
  m_ObjectHideFlags: 0
  m_CorrespondingSourceObject: {fileID: 0}
  m_PrefabInstance: {fileID: 0}
  m_PrefabAsset: {fileID: 0}
  m_GameObject: {fileID: 8111724055490976501}
  m_LocalRotation: {x: 0, y: 0, z: 0, w: 1}
  m_LocalPosition: {x: 0, y: 0, z: 0}
  m_LocalScale: {x: 1, y: 1, z: 1}
  m_Children: []
  m_Father: {fileID: 0}
  m_RootOrder: 0
  m_LocalEulerAnglesHint: {x: 0, y: 0, z: 0}
--- !u!114 &726365892635632171
MonoBehaviour:
  m_ObjectHideFlags: 0
  m_CorrespondingSourceObject: {fileID: 0}
  m_PrefabInstance: {fileID: 0}
  m_PrefabAsset: {fileID: 0}
  m_GameObject: {fileID: 8111724055490976501}
  m_Enabled: 1
  m_EditorHideFlags: 0
  m_Script: {fileID: 11500000, guid: bb48dde2eec5172479a761d0523a3deb, type: 3}
  m_Name: 
  m_EditorClassIdentifier: 
  menuCanvas: {fileID: 0}
  levelCanvas: {fileID: 0}
  gameCanvas: {fileID: 0}
  optionsCanvas: {fileID: 0}
  creatorsCanvas: {fileID: 0}
  victoryCanvas: {fileID: 0}
  gameOverCanvas: {fileID: 2868941494652967384, guid: 6c403c6e18e744747abc7f253c7904ef, type: 3}
  dialogCanvas: {fileID: 0}
  SettingCanvas: {fileID: 0}
  creditCanvas: {fileID: 0}
  isOver: 0
  isDialog: 0
